Istanza Tempo Valore
n0100m010.dat   0.025420   3428 
n0100m020.dat   0.048074  12274 
n0100m030.dat   0.072321  26164 
n0100m040.dat   0.094598  44742 
n0200m020.dat   0.182205  13139 
n0200m040.dat   0.369838  48040 
n0200m060.dat   0.536512 102535 
n0200m080.dat   0.719494 175407 
n0300m030.dat   0.640815  28085 
n0300m060.dat   1.221931 104224 
n0300m090.dat   1.804169 225757 
n0300m120.dat   2.395256 388130 
n0400m040.dat   1.461727  49597 
n0400m080.dat   2.924072 180983 
n0400m120.dat   4.238250 394012 
n0400m160.dat   5.504340 682459 
n0500m050.dat   2.851121  75918 
n0500m100.dat   5.571036 279998 
n0500m150.dat   8.426056 612279 
n0500m200.dat  11.109276 1063593 
n0600m060.dat   4.918047 107626 
n0600m120.dat   9.610071 400276 
n0600m180.dat  14.227163 876938 
n0600m240.dat  18.663853 1522013 
n0700m070.dat   7.901099 145022 
n0700m140.dat  15.469204 544539 
n0700m210.dat  22.645170 1185826 
n0700m280.dat  29.621812 2063566 
n0800m080.dat  11.691272 186420 
n0800m160.dat  23.235159 704770 
n0800m240.dat  34.247393 1549917 
n0800m320.dat  44.471375 2690759 
n0900m090.dat  16.926278 235297 
n0900m180.dat  33.634415 886643 
n0900m270.dat  50.615771 1948731 
n0900m360.dat  64.440497 3394742 
n1000m100.dat  23.694679 288528 
n1000m200.dat  47.717348 1091760 
n1000m300.dat  69.353575 2389379 
n1000m400.dat  91.478939 4190140 
