Istanza Tempo Valore
n0100m010.dat   0.016663   3423 
n0100m020.dat   0.034100  12358 
n0100m030.dat   0.050267  26255 
n0100m040.dat   0.064731  44661 
n0200m020.dat   0.125956  13139 
n0200m040.dat   0.257300  48149 
n0200m060.dat   0.386319 102535 
n0200m080.dat   0.488180 175407 
n0300m030.dat   0.432054  28351 
n0300m060.dat   0.867306 104130 
n0300m090.dat   1.225892 225925 
n0300m120.dat   1.563038 388996 
n0400m040.dat   1.010139  49515 
n0400m080.dat   1.972360 180929 
n0400m120.dat   2.882239 394012 
n0400m160.dat   3.731029 682068 
n0500m050.dat   1.973532  76045 
n0500m100.dat   3.835175 279995 
n0500m150.dat   5.599597 611182 
n0500m200.dat   7.308314 1062923 
n0600m060.dat   3.410350 107626 
n0600m120.dat   6.522531 402138 
n0600m180.dat   9.740951 876295 
n0600m240.dat  12.700825 1522105 
n0700m070.dat   5.300823 144837 
n0700m140.dat  10.562984 544539 
n0700m210.dat  15.539295 1186108 
n0700m280.dat  20.084726 2063742 
n0800m080.dat   8.058338 186339 
n0800m160.dat  16.071944 704961 
n0800m240.dat  23.469974 1550510 
n0800m320.dat  30.873590 2691914 
n0900m090.dat  11.537280 235443 
n0900m180.dat  23.229794 886151 
n0900m270.dat  34.314335 1949084 
n0900m360.dat  44.448122 3394073 
n1000m100.dat  16.165335 288477 
n1000m200.dat  32.367234 1091750 
n1000m300.dat  48.092470 2389872 
n1000m400.dat  61.868936 4190812 
