Istanza Tempo Valore
n0100m010.dat   0.009325   3432 
n0100m020.dat   0.016955  12216 
n0100m030.dat   0.026457  26115 
n0100m040.dat   0.033293  44037 
n0200m020.dat   0.065131  13205 
n0200m040.dat   0.133119  48040 
n0200m060.dat   0.192950 102562 
n0200m080.dat   0.275907 175460 
n0300m030.dat   0.222953  28481 
n0300m060.dat   0.442379 104227 
n0300m090.dat   0.643139 225905 
n0300m120.dat   0.842435 388138 
n0400m040.dat   0.522430  49333 
n0400m080.dat   1.033619 180929 
n0400m120.dat   1.504877 394241 
n0400m160.dat   2.011184 681948 
n0500m050.dat   1.017981  75918 
n0500m100.dat   2.023891 280615 
n0500m150.dat   2.948549 610889 
n0500m200.dat   3.873153 1062923 
n0600m060.dat   1.731733 107626 
n0600m120.dat   3.445785 400254 
n0600m180.dat   5.129702 876249 
n0600m240.dat   6.692086 1521578 
n0700m070.dat   2.708969 144837 
n0700m140.dat   5.538912 544539 
n0700m210.dat   8.163650 1185633 
n0700m280.dat  10.650320 2063566 
n0800m080.dat   4.079087 187088 
n0800m160.dat   8.399201 704682 
n0800m240.dat  12.263858 1549915 
n0800m320.dat  16.002107 2690866 
n0900m090.dat   5.855675 235443 
n0900m180.dat  12.105610 886151 
n0900m270.dat  18.046936 1949084 
n0900m360.dat  23.191830 3394271 
n1000m100.dat   8.129068 288357 
n1000m200.dat  16.923609 1091750 
n1000m300.dat  25.053568 2389100 
n1000m400.dat  32.707301 4190140 
