Istanza Tempo Valore
n0100m010.dat   0.049318   3468 
n0100m020.dat   0.095162  12369 
n0100m030.dat   0.142672  26282 
n0100m040.dat   0.194289  45177 
n0200m020.dat   0.368100  13270 
n0200m040.dat   0.760762  48217 
n0200m060.dat   1.082004 102548 
n0200m080.dat   1.467242 175460 
n0300m030.dat   1.281102  28661 
n0300m060.dat   2.511389 105033 
n0300m090.dat   3.739282 226399 
n0300m120.dat   4.782678 389235 
n0400m040.dat   3.022557  49492 
n0400m080.dat   5.851846 182177 
n0400m120.dat   8.559806 394232 
n0400m160.dat  11.180482 684440 
n0500m050.dat   5.829233  76090 
n0500m100.dat  11.397158 281124 
n0500m150.dat  16.932325 611162 
n0500m200.dat  21.661164 1065718 
n0600m060.dat   9.972941 107630 
n0600m120.dat  19.674054 400463 
n0600m180.dat  28.294447 878552 
n0600m240.dat  37.989013 1522026 
n0700m070.dat  15.716122 144837 
n0700m140.dat  31.543111 544639 
n0700m210.dat  46.482827 1186300 
n0700m280.dat  58.967704 2068258 
n0800m080.dat  23.969308 186763 
n0800m160.dat  47.674137 704961 
n0800m240.dat  69.747838 1550785 
n0800m320.dat  90.416887 2692010 
n0900m090.dat  34.410729 235794 
n0900m180.dat  69.790013 889219 
n0900m270.dat 102.052076 1949084 
n0900m360.dat 130.321331 3394714 
n1000m100.dat  47.470436 289586 
n1000m200.dat  95.370814 1091750 
n1000m300.dat 142.110904 2389716 
n1000m400.dat 184.335215 4190801 
