Istanza Tempo Valore
n0100m010.dat   0.049805   3428 
n0100m020.dat   0.096151  12311 
n0100m030.dat   0.144274  26434 
n0100m040.dat   0.187712  44762 
n0200m020.dat   0.365305  13262 
n0200m040.dat   0.785538  48217 
n0200m060.dat   1.097183 102548 
n0200m080.dat   1.412143 175460 
n0300m030.dat   1.290870  28933 
n0300m060.dat   2.491871 104535 
n0300m090.dat   3.629278 225923 
n0300m120.dat   4.767792 388138 
n0400m040.dat   2.965704  49515 
n0400m080.dat   5.795916 181185 
n0400m120.dat   8.579452 394227 
n0400m160.dat  11.105190 682713 
n0500m050.dat   5.822542  76043 
n0500m100.dat  11.434708 281032 
n0500m150.dat  16.688804 610857 
n0500m200.dat  21.944776 1063076 
n0600m060.dat   9.897225 107764 
n0600m120.dat  19.459988 400506 
n0600m180.dat  28.949131 876634 
n0600m240.dat  37.665548 1522105 
n0700m070.dat  15.537783 145022 
n0700m140.dat  31.209815 544569 
n0700m210.dat  45.916496 1186375 
n0700m280.dat  59.412867 2063596 
n0800m080.dat  23.680322 186593 
n0800m160.dat  47.300825 704961 
n0800m240.dat  69.124258 1550510 
n0800m320.dat  89.975130 2691738 
n0900m090.dat  33.486081 235652 
n0900m180.dat  68.517743 886352 
n0900m270.dat 100.653701 1949084 
n0900m360.dat 129.598580 3394707 
n1000m100.dat  47.596270 289762 
n1000m200.dat  96.169708 1091760 
n1000m300.dat 140.803633 2389588 
n1000m400.dat 182.679242 4191023 
