Istanza Tempo Valore
n0100m010.dat   0.019313   3400 
n0100m020.dat   0.032273  12251 
n0100m030.dat   0.049707  26115 
n0100m040.dat   0.064556  44318 
n0200m020.dat   0.126138  13285 
n0200m040.dat   0.257661  48129 
n0200m060.dat   0.369681 102545 
n0200m080.dat   0.499026 175407 
n0300m030.dat   0.430028  28518 
n0300m060.dat   0.862800 104130 
n0300m090.dat   1.277669 225925 
n0300m120.dat   1.675241 388035 
n0400m040.dat   1.011261  49515 
n0400m080.dat   2.051989 181449 
n0400m120.dat   2.947292 394012 
n0400m160.dat   3.835732 682068 
n0500m050.dat   1.980373  75918 
n0500m100.dat   3.957833 280451 
n0500m150.dat   5.735581 610896 
n0500m200.dat   7.452424 1062940 
n0600m060.dat   3.376193 107827 
n0600m120.dat   6.726338 400101 
n0600m180.dat   9.990968 876295 
n0600m240.dat  13.036490 1522066 
n0700m070.dat   5.255009 144837 
n0700m140.dat  10.747107 544687 
n0700m210.dat  15.886406 1186096 
n0700m280.dat  20.559909 2063831 
n0800m080.dat   8.028891 188500 
n0800m160.dat  16.254735 704814 
n0800m240.dat  23.762470 1550510 
n0800m320.dat  31.000331 2691108 
n0900m090.dat  11.328370 235443 
n0900m180.dat  23.359017 886151 
n0900m270.dat  35.015461 1948726 
n0900m360.dat  44.799889 3394459 
n1000m100.dat  16.038056 288380 
n1000m200.dat  32.577609 1091750 
n1000m300.dat  49.067602 2389588 
n1000m400.dat  63.248192 4191023 
