Istanza Tempo Valore
n0100m010.dat   0.001667   3393 
n0100m020.dat   0.005095  12441 
n0100m030.dat   0.009663  26290 
n0100m040.dat   0.014880  45096 
n0200m020.dat   0.010167  13111 
n0200m040.dat   0.033172  47801 
n0200m060.dat   0.064270 102060 
n0200m080.dat   0.102013 175980 
n0300m030.dat   0.031999  28487 
n0300m060.dat   0.105186 105089 
n0300m090.dat   0.208705 224853 
n0300m120.dat   0.330219 389577 
n0400m040.dat   0.072600  49191 
n0400m080.dat   0.243083 182768 
n0400m120.dat   0.480053 396191 
n0400m160.dat   0.763661 686358 
n0500m050.dat   0.137024  76359 
n0500m100.dat   0.464346 281749 
n0500m150.dat   0.921922 612799 
n0500m200.dat   1.479445 1067139 
n0600m060.dat   0.231614 107839 
n0600m120.dat   0.789383 403188 
n0600m180.dat   1.575304 878825 
n0600m240.dat   2.522652 1524572 
n0700m070.dat   0.366761 144980 
n0700m140.dat   1.248915 544749 
n0700m210.dat   2.493048 1189303 
n0700m280.dat   4.034836 2068380 
n0800m080.dat   0.567392 187784 
n0800m160.dat   1.929224 706083 
n0800m240.dat   3.890577 1548170 
n0800m320.dat   6.111125 2695796 
n0900m090.dat   0.896757 235590 
n0900m180.dat   2.990753 890860 
n0900m270.dat   5.801666 1947340 
n0900m360.dat   9.084882 3398091 
n1000m100.dat   1.382644 289672 
n1000m200.dat   4.507969 1093574 
n1000m300.dat   8.663907 2393025 
n1000m400.dat  13.332175 4191255 
