Istanza Tempo Valore
n0100m010.dat   0.002136   3463 
n0100m020.dat   0.005980  12306 
n0100m030.dat   0.009165  26462 
n0100m040.dat   0.014113  45353 
n0200m020.dat   0.009602  13218 
n0200m040.dat   0.032233  48120 
n0200m060.dat   0.062206 102563 
n0200m080.dat   0.099840 176208 
n0300m030.dat   0.030351  28684 
n0300m060.dat   0.102384 105276 
n0300m090.dat   0.204130 225851 
n0300m120.dat   0.325093 389885 
n0400m040.dat   0.070562  49547 
n0400m080.dat   0.237698 182757 
n0400m120.dat   0.475024 393770 
n0400m160.dat   0.759005 686567 
n0500m050.dat   0.133273  76345 
n0500m100.dat   0.455097 283387 
n0500m150.dat   0.918334 612730 
n0500m200.dat   1.468006 1067535 
n0600m060.dat   0.226458 107919 
n0600m120.dat   0.782543 402561 
n0600m180.dat   1.560713 879225 
n0600m240.dat   2.501554 1525257 
n0700m070.dat   0.357516 145577 
n0700m140.dat   1.233534 544893 
n0700m210.dat   2.496713 1190316 
n0700m280.dat   3.994480 2068285 
n0800m080.dat   0.585986 187689 
n0800m160.dat   1.970073 706199 
n0800m240.dat   3.918034 1548443 
n0800m320.dat   6.148212 2697423 
n0900m090.dat   0.891088 235869 
n0900m180.dat   3.157718 890552 
n0900m270.dat   5.914043 1947817 
n0900m360.dat   9.428531 3398883 
n1000m100.dat   1.488751 289158 
n1000m200.dat   4.768608 1091722 
n1000m300.dat   8.963515 2392812 
n1000m400.dat  13.306843 4192056 
